Lista de Exercícios 2 — Estatística Computacional
…
# em construção

(l) A partir do objeto dados crie um objeto dados4 contendo a
precipitação acumulada no período de 24 horas.

dados <- dados[order(dados[,"Data"],dados[,"hora"]),]
dados4 <- dados[,c("Data","hora","precp")]
dados4 <- dados4 %>% 
            dplyr::group_by(Data) %>% 
            dplyr::mutate(precp_acum = cumsum(precp))
dados4

## # A tibble: 8,760 x 4
## # Groups:   Data [365]
##    Data       hora     precp precp_acum
##    <date>     <chr>    <dbl>      <dbl>
##  1 2021-01-01 0000 UTC     0          0
##  2 2021-01-01 0100 UTC     0          0
##  3 2021-01-01 0200 UTC     0          0
##  4 2021-01-01 0300 UTC     0          0
##  5 2021-01-01 0400 UTC     0          0
##  6 2021-01-01 0500 UTC     0          0
##  7 2021-01-01 0600 UTC     0          0
##  8 2021-01-01 0700 UTC     0          0
##  9 2021-01-01 0800 UTC     0          0
## 10 2021-01-01 0900 UTC     0          0
## # ... with 8,750 more rows
…
